{
	"additionalNodes": [ {
		"children": [],
		"id": "v9wPjmSkzFDmm6bWCF0GHNr6RYSOIK7O",
		"nodeType": "luaCommand",
		"parameters": [ {
			"name": "var",
			"value": "returnPath"
		}, {
			"name": "value",
			"value": "getPath(transporterPos, core.MissionInfo().safeArea.center, bb.map.canyon, stride)"
		}, {
			"name": "scriptName",
			"value": "store"
		} ],
		"scriptName": "store"
	} ],
	"additionalParameters": {
		"root": {
			"height": 168,
			"width": 236
		}
	},
	"inputs": [ {
		"command": "BETS_UNIT",
		"name": "transport"
	}, {
		"command": "BETS_UNIT",
		"name": "target"
	}, {
		"command": "Variable",
		"name": "safeMap"
	} ],
	"outputs": [],
	"properties": {
		"Hb1JaCYvu9LjknjQPJZiXisthJUNbwwt": {
			"height": 94,
			"title": "nota_novak_ttdr.followPath",
			"width": 606,
			"x": 626,
			"y": 87
		},
		"givWWWztT0HL6ZFexDtr60sBfVRahX7Y": {
			"height": 92,
			"title": "nota_novak_ttdr.pickUp",
			"width": 211,
			"x": 626,
			"y": -25
		},
		"pWAFCRiYhSpOkQSjUfM8SzpQX3ZeC2Wk": {
			"height": 94,
			"title": "nota_novak_ttdr.dropOff",
			"width": 279,
			"x": 625,
			"y": 203
		},
		"qWlov4aiC3CEOIORWM8sNaGqiRtVxDGE": {
			"height": 60,
			"title": "sequence",
			"width": 143,
			"x": 314,
			"y": 38
		},
		"rf2tWapYH2LZMoK5lQW3bX9nrTHdZMqS": {
			"height": 94,
			"title": "nota_novak_ttdr.followPath",
			"width": 504,
			"x": 622,
			"y": -135
		},
		"v9wPjmSkzFDmm6bWCF0GHNr6RYSOIK7O": {
			"height": 94,
			"title": "store",
			"width": 614,
			"x": 1169,
			"y": 1348
		}
	},
	"roles": [ {
		"categories": [],
		"name": "Role 0"
	} ],
	"root": {
		"children": [ {
			"children": [],
			"id": "rf2tWapYH2LZMoK5lQW3bX9nrTHdZMqS",
			"nodeType": "luaCommand",
			"parameters": [ {
				"name": "unit",
				"value": "transport"
			}, {
				"name": "path",
				"value": "getPath(transport, target, safeMap)"
			}, {
				"name": "scriptName",
				"value": "nota_novak_ttdr.followPath"
			} ],
			"scriptName": "nota_novak_ttdr.followPath"
		}, {
			"children": [],
			"id": "givWWWztT0HL6ZFexDtr60sBfVRahX7Y",
			"nodeType": "luaCommand",
			"parameters": [ {
				"name": "transport",
				"value": "transport"
			}, {
				"name": "unit",
				"value": "target"
			}, {
				"name": "scriptName",
				"value": "nota_novak_ttdr.pickUp"
			} ],
			"scriptName": "nota_novak_ttdr.pickUp"
		}, {
			"children": [],
			"id": "Hb1JaCYvu9LjknjQPJZiXisthJUNbwwt",
			"nodeType": "luaCommand",
			"parameters": [ {
				"name": "unit",
				"value": "transport"
			}, {
				"name": "path",
				"value": "getPath(transport, core.MissionInfo().safeArea.center, safeMap)"
			}, {
				"name": "scriptName",
				"value": "nota_novak_ttdr.followPath"
			} ],
			"scriptName": "nota_novak_ttdr.followPath"
		}, {
			"children": [],
			"id": "pWAFCRiYhSpOkQSjUfM8SzpQX3ZeC2Wk",
			"nodeType": "luaCommand",
			"parameters": [ {
				"name": "transport",
				"value": "transport"
			}, {
				"name": "safeArea",
				"value": "core.MissionInfo().safeArea"
			}, {
				"name": "scriptName",
				"value": "nota_novak_ttdr.dropOff"
			} ],
			"scriptName": "nota_novak_ttdr.dropOff"
		} ],
		"id": "qWlov4aiC3CEOIORWM8sNaGqiRtVxDGE",
		"nodeType": "sequence",
		"parameters": []
	}
}